<html lang="en-US">
	<head>
		<title>
			(.*) – Storefront
		</title>
	</head>
	<body class="product-template-default single single-product postid-(.*)4 woocommerce woocommerce-page woocommerce-demo-store storefront-secondary-navigation right-sidebar woocommerce-active sbc-meta-left-2 sd-header-compact sd-typography-helvetica storefront-pricing-tables-active storefront-product-hero-active swc-shop-alignment-center">
		<div class="hfeed site" id="page">
			<header class="site-header" id="masthead" role="banner" style="">
				<div class="col-full">
					<a class="skip-link screen-reader-text" href="#site-navigation">
						Skip to navigation
					</a>
					<a class="skip-link screen-reader-text" href="#content">
						Skip to content
					</a>
					<div class="site-branding">
						<div class="beta site-title">
							<a href="https://themes.woocommerce.com/storefront/" rel="home">
								Storefront
							</a>
						</div>
						<p class="site-description">
							Just another WooThemes Demo site
						</p>
					</div>
					<nav aria-label="Secondary Navigation" class="secondary-navigation" role="navigation">
						<div class="menu-secondary-navigation-container">
							<ul class="menu" id="menu-secondary-navigation">
								<li class="menu-item menu-item-type-post_type menu-item-object-page menu-item-110" id="menu-item-110">
									<a href="https://themes.woocommerce.com/storefront/my-account/">
										My Account
									</a>
								</li>
								<li class="menu-item menu-item-type-post_type menu-item-object-page menu-item-12164" id="menu-item-12164">
									<a href="https://themes.woocommerce.com/storefront/about-demo/">
										About this Demo
									</a>
								</li>
							</ul>
						</div>
					</nav>
					<div class="site-search">
						<div class="widget woocommerce widget_product_search">
							<form action="https://themes.woocommerce.com/storefront/" class="woocommerce-product-search" method="get" role="search">
								<label class="screen-reader-text" for="woocommerce-product-search-field-0">
									Search for:
								</label>
								<input class="search-field" id="woocommerce-product-search-field-0" name="s" placeholder="Search products…" type="search" value=""/>
								<input type="submit" value="Search"/>
								<input name="post_type" type="hidden" value="product"/>
							</form>
						</div>
					</div>
				</div>
				<div class="storefront-primary-navigation">
					<div class="col-full">
						<nav aria-label="Primary Navigation" class="main-navigation" id="site-navigation" role="navigation">
							<button aria-controls="site-navigation" aria-expanded="false" class="menu-toggle">
								<span>
									Menu
								</span>
							</button>
							<div class="primary-navigation">
								<ul class="menu" id="menu-navigation">
									<li class="menu-item menu-item-type-post_type menu-item-object-page menu-item-107" id="menu-item-107">
										<a href="https://themes.woocommerce.com/storefront/blog/">
											Blog
										</a>
									</li>
									<li class="menu-item menu-item-type-post_type menu-item-object-page current_page_parent menu-item-7192 smm-active menu-item-has-children" id="menu-item-7192">
										<a href="https://themes.woocommerce.com/storefront/shop/">
											Shop
										</a>
										<ul class="sub-menu">
											<li>
												<div class="smm-mega-menu">
													<div class="smm-row">
														<div class="smm-span-2">
															<aside class="widget widget_nav_menu" id="nav_menu-11">
																<h3 class="widget-title">
																	Clothing
																</h3>
																<div class="menu-mega-menu-1st-container">
																	<ul class="menu" id="menu-mega-menu-1st">
																		<li class="menu-item menu-item-type-taxonomy menu-item-object-product_cat (.*)t menu-item-7080" id="menu-item-7080">
																			<a href="https://themes.woocommerce.com/storefront/product-category/clothing/blouses/">
																				Blouses
																			</a>
																		</li>
																		<li class="menu-item menu-item-type-taxonomy menu-item-object-product_cat menu-item-7081" id="menu-item-7081">
																			<a href="https://themes.woocommerce.com/storefront/product-category/clothing/dresses/">
																				Dresses
																			</a>
																		</li>
																		<li class="menu-item menu-item-type-taxonomy menu-item-object-product_cat menu-item-7082" id="menu-item-7082">
																			<a href="https://themes.woocommerce.com/storefront/product-category/clothing/footwear/">
																				Footwear
																			</a>
																		</li>
																		<li class="menu-item menu-item-type-taxonomy menu-item-object-product_cat menu-item-7083" id="menu-item-7083">
																			<a href="https://themes.woocommerce.com/storefront/product-category/clothing/hats/">
																				Hats
																			</a>
																		</li>
																		<li class="menu-item menu-item-type-taxonomy menu-item-object-product_cat menu-item-7084" id="menu-item-7084">
																			<a href="https://themes.woocommerce.com/storefront/product-category/clothing/hoodies/">
																				Hoodies
																			</a>
																		</li>
																		<li class="menu-item menu-item-type-taxonomy menu-item-object-product_cat menu-item-7085" id="menu-item-7085">
																			<a href="https://themes.woocommerce.com/storefront/product-category/clothing/skirts/">
																				Skirts
																			</a>
																		</li>
																		<li class="menu-item menu-item-type-taxonomy menu-item-object-product_cat menu-item-7086" id="menu-item-7086">
																			<a href="https://themes.woocommerce.com/storefront/product-category/clothing/shirts/">
																				Shirts
																			</a>
																		</li>
																		<li class="menu-item menu-item-type-taxonomy menu-item-object-product_cat menu-item-7087" id="menu-item-7087">
																			<a href="https://themes.woocommerce.com/storefront/product-category/clothing/t-shirts/">
																				T-shirts
																			</a>
																		</li>
																		<li class="menu-item menu-item-type-taxonomy menu-item-object-product_cat menu-item-7088" id="menu-item-7088">
																			<a href="https://themes.woocommerce.com/storefront/product-category/clothing/trousers/">
																				Trousers
																			</a>
																		</li>
																	</ul>
																</div>
															</aside>
														</div>
														<div class="smm-span-2">
															<aside class="widget widget_nav_menu" id="nav_menu-12">
																<h3 class="widget-title">
																	Kitchen
																</h3>
																<div class="menu-mega-menu-2nd-container">
																	<ul class="menu" id="menu-mega-menu-2nd">
																		<li class="menu-item menu-item-type-taxonomy menu-item-object-product_cat menu-item-7215" id="menu-item-7215">
																			<a href="https://themes.woocommerce.com/storefront/product-category/kitchen/blenders/">
																				Blenders
																			</a>
																		</li>
																		<li class="menu-item menu-item-type-taxonomy menu-item-object-product_cat menu-item-7216" id="menu-item-7216">
																			<a href="https://themes.woocommerce.com/storefront/product-category/kitchen/colanders/">
																				Colanders
																			</a>
																		</li>
																		<li class="menu-item menu-item-type-taxonomy menu-item-object-product_cat menu-item-7089" id="menu-item-7089">
																			<a href="https://themes.woocommerce.com/storefront/product-category/kitchen/kettles/">
																				Kettles
																			</a>
																		</li>
																		<li class="menu-item menu-item-type-taxonomy menu-item-object-product_cat (.*)t menu-item-7206" id="menu-item-7206">
																			<a href="https://themes.woocommerce.com/storefront/product-category/kitchen/knives/">
																				Knives
																			</a>
																		</li>
																		<li class="menu-item menu-item-type-taxonomy menu-item-object-product_cat menu-item-7090" id="menu-item-7090">
																			<a href="https://themes.woocommerce.com/storefront/product-category/kitchen/pots-pans/">
																				Pots &amp; Pans
																			</a>
																		</li>
																		<li class="menu-item menu-item-type-taxonomy menu-item-object-product_cat menu-item-7091" id="menu-item-7091">
																			<a href="https://themes.woocommerce.com/storefront/product-category/kitchen/toasters/">
																				Toasters
																			</a>
																		</li>
																	</ul>
																</div>
															</aside>
														</div>
														<div class="smm-span-2">
															<aside class="widget widget_nav_menu" id="nav_menu-13">
																<h3 class="widget-title">
																	Electronics
																</h3>
																<div class="menu-mega-menu-3rd-container">
																	<ul class="menu" id="menu-mega-menu-3rd">
																		<li class="menu-item menu-item-type-taxonomy menu-item-object-product_cat menu-item-7092" id="menu-item-7092">
																			<a href="https://themes.woocommerce.com/storefront/product-category/electronics/cameras/">
																				Cameras
																			</a>
																		</li>
																		<li class="menu-item menu-item-type-taxonomy menu-item-object-product_cat menu-item-7189" id="menu-item-7189">
																			<a href="https://themes.woocommerce.com/storefront/product-category/electronics/dvd-players/">
																				DVD Players
																			</a>
																		</li>
																		<li class="menu-item menu-item-type-taxonomy menu-item-object-product_cat menu-item-7093" id="menu-item-7093">
																			<a href="https://themes.woocommerce.com/storefront/product-category/electronics/headphones/">
																				Headphones
																			</a>
																		</li>
																		<li class="menu-item menu-item-type-taxonomy menu-item-object-product_cat menu-item-7147" id="menu-item-7147">
																			<a href="https://themes.woocommerce.com/storefront/product-category/electronics/mp3-players/">
																				MP3 Players
																			</a>
																		</li>
																		<li class="menu-item menu-item-type-taxonomy menu-item-object-product_cat menu-item-7135" id="menu-item-7135">
																			<a href="https://themes.woocommerce.com/storefront/product-category/electronics/radios/">
																				Radios
																			</a>
																		</li>
																		<li class="menu-item menu-item-type-taxonomy menu-item-object-product_cat menu-item-7094" id="menu-item-7094">
																			<a href="https://themes.woocommerce.com/storefront/product-category/electronics/televisions/">
																				Televisions
																			</a>
																		</li>
																	</ul>
																</div>
															</aside>
														</div>
														<div class="smm-span-2">
															<aside class="widget widget_nav_menu" id="nav_menu-14">
																<h3 class="widget-title">
																	Music
																</h3>
																<div class="menu-mega-menu-4th-container">
																	<ul class="menu" id="menu-mega-menu-4th">
																		<li class="menu-item menu-item-type-taxonomy menu-item-object-product_cat menu-item-7095" id="menu-item-7095">
																			<a href="https://themes.woocommerce.com/storefront/product-category/music/albums/">
																				Albums
																			</a>
																		</li>
																		<li class="menu-item menu-item-type-taxonomy menu-item-object-product_cat menu-item-7096" id="menu-item-7096">
																			<a href="https://themes.woocommerce.com/storefront/product-category/music/singles/">
																				Singles
																			</a>
																		</li>
																		<li class="menu-item menu-item-type-taxonomy menu-item-object-product_cat menu-item-7190" id="menu-item-7190">
																			<a href="https://themes.woocommerce.com/storefront/product-category/music/mp3/">
																				MP3
																			</a>
																		</li>
																		<li class="menu-item menu-item-type-taxonomy menu-item-object-product_cat menu-item-7136" id="menu-item-7136">
																			<a href="https://themes.woocommerce.com/storefront/product-category/posters/">
																				Posters
																			</a>
																		</li>
																	</ul>
																</div>
															</aside>
														</div>
														<div class="smm-span-4 smm-last">
															<aside class="widget widget_text" id="text-5">
																<h3 class="widget-title">
																	Mega Menus Extension
																</h3>
																<div class="textwidget">
																	<p>
																		If you would like to display a full width menu like you see here this can be achieved by using our Mega Menus extension for Storefront.
																	</p>
																	<p>
																		<a class="button" href="https://www.woothemes.com/products/storefront-mega-menus/">
																			Mega Menus â†’
																		</a>
																	</p>
																</div>
															</aside>
														</div>
													</div>
												</div>
											</li>
										</ul>
									</li>
									<li class="menu-item menu-item-type-post_type menu-item-object-page menu-item-7258" id="menu-item-7258">
										<a href="https://themes.woocommerce.com/storefront/single-product/">
											Single Product Homepage Example
										</a>
									</li>
									<li class="menu-item menu-item-type-post_type menu-item-object-page menu-item-5488" id="menu-item-5488">
										<a href="https://themes.woocommerce.com/storefront/pricing-tables/">
											Pricing Tables
										</a>
									</li>
									<li class="menu-item menu-item-type-post_type menu-item-object-page menu-item-6095" id="menu-item-6095">
										<a href="https://themes.woocommerce.com/storefront/reviews/">
											Reviews
										</a>
									</li>
								</ul>
							</div>
							<div class="menu">
								<ul>
									<li>
										<a href="https://themes.woocommerce.com/storefront/">
											Home
										</a>
									</li>
									<li class="page_item page-item-8818">
										<a href="https://themes.woocommerce.com/storefront/about-demo/">
											About this Demo
										</a>
									</li>
									<li class="page_item page-item-103 ">
										<a href="https://themes.woocommerce.com/storefront/blog/">
											Blog
										</a>
									</li>
									<li class="page_item page-item-5">
										<a href="https://themes.woocommerce.com/storefront/cart/">
											Cart
										</a>
									</li>
									<li class="page_item page-item-6">
										<a href="https://themes.woocommerce.com/storefront/checkout/">
											Checkout
										</a>
									</li>
									<li class="page_item page-item-7">
										<a href="https://themes.woocommerce.com/storefront/my-account/">
											My Account
										</a>
									</li>
									<li class="page_item page-item-5452">
										<a href="https://themes.woocommerce.com/storefront/pricing-tables/">
											Pricing Tables
										</a>
									</li>
									<li class="page_item page-item-6094">
										<a href="https://themes.woocommerce.com/storefront/reviews/">
											Reviews
										</a>
									</li>
									<li class="page_item page-item-2">
										<a href="https://themes.woocommerce.com/storefront/sample-page/">
											Sample Page
										</a>
									</li>
									<li class="page_item page-item-4 current_page_parent">
										<a href="https://themes.woocommerce.com/storefront/shop/">
											Shop
										</a>
									</li>
									<li class="page_item page-item-7229">
										<a href="https://themes.woocommerce.com/storefront/single-product/">
											Single Product
										</a>
									</li>
								</ul>
							</div>
						</nav>
						<ul class="site-header-cart menu" id="site-header-cart">
							<li class="">
								<a class="cart-contents" href="https://themes.woocommerce.com/storefront/cart/" title="View your shopping cart">
									<span class="woocommerce-Price-amount amount">
										<span class="woocommerce-Price-currencySymbol">
											£
										</span>
										0.00
									</span>
									<span class="count">
										0 items
									</span>
								</a>
							</li>
							<li>
								<div class="widget woocommerce widget_shopping_cart">
									<div class="widget_shopping_cart_content">
									</div>
								</div>
							</li>
						</ul>
					</div>
				</div>
			</header>
			<div class="storefront-breadcrumb">
				<div class="col-full">
					<nav class="woocommerce-breadcrumb">
						<a href="https://themes.woocommerce.com/storefront">
							Home
						</a>
						<span class="breadcrumb-separator">
							/
						</span>
						<a href="https://themes.woocommerce.com/storefront/product-category/(.*)/">
							(.*)
						</a>
						<span class="breadcrumb-separator">
							/
						</span>
						<a href="https://themes.woocommerce.com/storefront/product-category/(.*)es/">
							(.*)es
						</a>
						<span class="breadcrumb-separator">
							/
						</span>
						(.*)
					</nav>
				</div>
			</div>
			<div class="site-content" id="content" tabindex="-1">
				<div class="col-full">
					<div class="woocommerce">
					</div>
					<div class="content-area" id="primary">
						<main class="site-main" id="main" role="main">
							<div class="post-(.*)4">
								<div class="woocommerce-product-gallery woocommerce-product-gallery--with-images woocommerce-product-gallery--columns-4 images" data-columns="4" style="opacity: 0; transition: opacity .25s ease-in-out;">
									<figure class="woocommerce-product-gallery__wrapper">
										<div class="woocommerce-product-gallery__image" data-thumb="https://themes.woocommerce.com/storefront/wp-content/uploads/sites/78/2015/(.*).jpg?w=200&amp;h=200&amp;crop=1">
											<a href="https://themes.woocommerce.com/storefront/wp-content/uploads/sites/78/2015/(.*).jpg">
												<img alt="" class="attachment-shop_single size-shop_single wp-post-image" data-caption="" data-large_image="https://themes.woocommerce.com/storefront/wp-content/uploads/sites/78/2015/(.*)"/>
											</a>
										</div>
									</figure>
								</div>
								<div class="summary entry-summary">
									<h1 class="product_title entry-title">
										(.*)
									</h1>
									<p class="price">
										<span class="woocommerce-Price-amount amount">
											<span class="woocommerce-Price-currencySymbol">
												£
											</span>
											3(.*)
										</span>
									</p>
									<div class="woocommerce-product-details__short-description">
										<p>
											(.*).
										</p>
									</div>
									<form class="(.*) enctype="multipart/form-data" method="post">
										(<table cellspacing="0" class="variations">
											<tbody>
												<tr>
													<td class="label">
														<label for="pa_color">
															Color
														</label>
													</td>
													<td class="value">
														<select class="wc-default-select" data-attribute_name="attribute_pa_color" id="pa_color" name="attribute_pa_color">
															<option value="">
																Choose an option
															</option>
															<option value="blue">
																Blue
															</option>
														</select>
													</td>
												</tr>
												<tr>
													<td class="label">
														<label for="pa_sizes">
															Sizes
														</label>
													</td>
													<td class="value">
														<select class="wc-default-select" data-attribute_name="attribute_pa_sizes" id="pa_sizes" name="attribute_pa_sizes">
															<option value="">
																Choose an option
															</option>
															<option value="size-4">
																Size 4
															</option>
															<option value="size-6">
																Size 6
															</option>
															<option value="size-8">
																Size 8
															</option>
															<option value="size-10">
																Size 10
															</option>
															<option value="size-12">
																size 12
															</option>
															<option value="size-14">
																Size 14
															</option>
															<option value="size-16">
																Size 16
															</option>
														</select>
														<a class="reset_variations" href="#">
															Clear
														</a>
													</td>
												</tr>
											</tbody>
										</table>)?
										<div class="(.*)">
											(<div class="woocommerce-variation single_variation">
											</div>)?
											(<div class="woocommerce-variation-add-to-cart variations_button">
												<div class="quantity">
													<label class="screen-reader-text" for="quantity_5ccafbf6e3421">
														Quantity
													</label>
													<input class="input-text qty text" id="quantity_5ccafbf6e3421" inputmode="numeric" max="" min="1" name="quantity" pattern="[0-9]*" size="4" step="1" title="Qty" type="number" value="1"/>
												</div>
												<button class="single_add_to_cart_button button alt" type="submit">
													Add to cart
												</button>
												<input name="add-to-cart" type="hidden" value="164"/>
												<input name="product_id" type="hidden" value="164"/>
												<input class="variation_id" name="variation_id" type="hidden" value="0"/>
											</div>)?
											(<label class="screen-reader-text" for="quantity_5cc8bff7e7db0">
												Quantity
											</label>)?
											(<input class="input-text qty text" id="quantity_5cc8bff7e7db0" inputmode="numeric" max="" min="1" name="quantity" pattern="[0-9]*" size="4" step="1" title="Qty" type="number" value="1"/>)?
										</div>
										(<button class="single_add_to_cart_button button alt" name="add-to-cart" type="submit" value="7204">
											Add to cart
										</button>)?
									</form>
									<div class="product_meta">
										<span class="sku_wrapper">
											SKU:
											<span class="sku">
												(.*)
											</span>
										</span>
										<span class="posted_in">
											Category:
											<a href="https://themes.woocommerce.com/storefront/product-category/(.*)es/" rel="tag">
												(.*)es
											</a>
										</span>
									</div>
								</div>
								<div class="woocommerce-tabs wc-tabs-wrapper">
									<ul class="tabs wc-tabs" role="tablist">
										<li aria-controls="tab-description" class="description_tab" id="tab-title-description" role="tab">
											<a href="#tab-description">
												Description
											</a>
										</li>
										<li aria-controls="tab-(.*)" role="tab">
											<a href="#tab-(.*)">
												(.*)
											</a>
										</li>
										(<li aria-controls="tab-reviews" class="reviews_tab" id="tab-title-reviews" role="tab">
											<a href="#tab-reviews">
												Reviews (0)
											</a>
										</li>)?
									</ul>
									<div aria-labelledby="tab-title-description" class="woocommerce-Tabs-panel woocommerce-Tabs-panel--description panel entry-content wc-tab" id="tab-description" role="tabpanel">
										<h2>
											Description
										</h2>
										<p>
											(.*).
										</p>
									</div>
									<div aria-labelledby="tab-title-(.*)" role="tabpanel">
										(<h2>
											Additional information
										</h2>)?
										(<table class="shop_attributes">
											<tr>
												<th>
													Color
												</th>
												<td>
													<p>
														Blue
													</p>
												</td>
											</tr>
											<tr>
												<th>
													Sizes
												</th>
												<td>
													<p>
														Size 4, Size 6, Size 8, Size 10, size 12, Size 14, Size 16
													</p>
												</td>
											</tr>
										</table>)?
										(<div class="woocommerce-Reviews" id="reviews">
											<div id="comments">
												<h2 class="woocommerce-Reviews-title">
													Reviews
												</h2>
												<p class="woocommerce-noreviews">
													There are no reviews yet.
												</p>
											</div>
											<div id="review_form_wrapper">
												<div id="review_form">
													<div class="comment-respond" id="respond">
														<span class="comment-reply-title" id="reply-title">
															Be the first to review “Stainless Steel Kitchen Knife Set”
															<small>
																<a href="/storefront/product/stainless-steel-kitchen-knife-set/#respond" id="cancel-comment-reply-link" rel="nofollow" style="display:none;">
																	Cancel reply
																</a>
															</small>
														</span>
														<form action="https://themes.woocommerce.com/storefront/wp-comments-post.php" class="comment-form" id="commentform" method="post" novalidate="">
															<p class="comment-notes">
																<span id="email-notes">
																	Your email address will not be published.
																</span>
																Required fields are marked
																<span class="required">
																	*
																</span>
															</p>
															<div class="comment-form-rating">
																<label for="rating">
																	Your rating
																</label>
																<select aria-required="true" id="rating" name="rating" required="">
																	<option value="">
																		Rate…
																	</option>
																	<option value="5">
																		Perfect
																	</option>
																	<option value="4">
																		Good
																	</option>
																	<option value="3">
																		Average
																	</option>
																	<option value="2">
																		Not that bad
																	</option>
																	<option value="1">
																		Very poor
																	</option>
																</select>
															</div>
															<p class="comment-form-comment">
																<label for="comment">
																	Your review
																	<span class="required">
																		*
																	</span>
																</label>
																<textarea aria-required="true" cols="45" id="comment" name="comment" required="" rows="8">
																</textarea>
															</p>
															<p class="comment-form-author">
																<label for="author">
																	Name
																	<span class="required">
																		*
																	</span>
																</label>
																<input aria-required="true" id="author" name="author" required="" size="30" type="text" value=""/>
															</p>
															<p class="comment-form-email">
																<label for="email">
																	Email
																	<span class="required">
																		*
																	</span>
																</label>
																<input aria-required="true" id="email" name="email" required="" size="30" type="email" value=""/>
															</p>
															<p class="form-submit">
															</p>
															<p class="comment-subscription-form">
																<input id="subscribe_blog" name="subscribe_blog" style="width: auto; -moz-appearance: checkbox; -webkit-appearance: checkbox;" type="checkbox" value="subscribe"/>
																<label class="subscribe-label" for="subscribe_blog" id="subscribe-blog-label">
																	Notify me of new posts by email.
																</label>
															</p>
															<input class="submit" id="submit" name="submit" type="submit" value="Submit"/>
															<input id="comment_post_ID" name="comment_post_ID" type="hidden" value="7204"/>
															<input id="comment_parent" name="comment_parent" type="hidden" value="0"/>
															<p style="display: none;">
																<input id="akismet_comment_nonce" name="akismet_comment_nonce" type="hidden" value="7e5d65f495"/>
															</p>
															<p style="display: none;">
																<input id="ak_js" name="ak_js" type="hidden" value="247"/>
															</p>
														</form>
													</div>
												</div>
											</div>
											<div class="clear">
											</div>
										</div>)?
									</div>
									(<div aria-labelledby="tab-title-reviews" class="woocommerce-Tabs-panel woocommerce-Tabs-panel--reviews panel entry-content wc-tab" id="tab-reviews" role="tabpanel">
										<div class="woocommerce-Reviews" id="reviews">
											<div id="comments">
												<h2 class="woocommerce-Reviews-title">
													Reviews
												</h2>
												<p class="woocommerce-noreviews">
													There are no reviews yet.
												</p>
											</div>
											<div id="review_form_wrapper">
												<div id="review_form">
													<div class="comment-respond" id="respond">
														<span class="comment-reply-title" id="reply-title">
															Be the first to review “Blue Blouse”
															<small>
																<a href="/storefront/product/blue-blouse/#respond" id="cancel-comment-reply-link" rel="nofollow" style="display:none;">
																	Cancel reply
																</a>
															</small>
														</span>
														<form action="https://themes.woocommerce.com/storefront/wp-comments-post.php" class="comment-form" id="commentform" method="post" novalidate="">
															<p class="comment-notes">
																<span id="email-notes">
																	Your email address will not be published.
																</span>
																Required fields are marked
																<span class="required">
																	*
																</span>
															</p>
															<div class="comment-form-rating">
																<label for="rating">
																	Your rating
																</label>
																<select aria-required="true" id="rating" name="rating" required="">
																	<option value="">
																		Rate…
																	</option>
																	<option value="5">
																		Perfect
																	</option>
																	<option value="4">
																		Good
																	</option>
																	<option value="3">
																		Average
																	</option>
																	<option value="2">
																		Not that bad
																	</option>
																	<option value="1">
																		Very poor
																	</option>
																</select>
															</div>
															<p class="comment-form-comment">
																<label for="comment">
																	Your review
																	<span class="required">
																		*
																	</span>
																</label>
																<textarea aria-required="true" cols="45" id="comment" name="comment" required="" rows="8">
																</textarea>
															</p>
															<p class="comment-form-author">
																<label for="author">
																	Name
																	<span class="required">
																		*
																	</span>
																</label>
																<input aria-required="true" id="author" name="author" required="" size="30" type="text" value=""/>
															</p>
															<p class="comment-form-email">
																<label for="email">
																	Email
																	<span class="required">
																		*
																	</span>
																</label>
																<input aria-required="true" id="email" name="email" required="" size="30" type="email" value=""/>
															</p>
															<p class="form-submit">
															</p>
															<p class="comment-subscription-form">
																<input id="subscribe_blog" name="subscribe_blog" style="width: auto; -moz-appearance: checkbox; -webkit-appearance: checkbox;" type="checkbox" value="subscribe"/>
																<label class="subscribe-label" for="subscribe_blog" id="subscribe-blog-label">
																	Notify me of new posts by email.
																</label>
															</p>
															<input class="submit" id="submit" name="submit" type="submit" value="Submit"/>
															<input id="comment_post_ID" name="comment_post_ID" type="hidden" value="164"/>
															<input id="comment_parent" name="comment_parent" type="hidden" value="0"/>
															<p style="display: none;">
																<input id="akismet_comment_nonce" name="akismet_comment_nonce" type="hidden" value="ec74cf7f19"/>
															</p>
															<p style="display: none;">
																<input id="ak_js" name="ak_js" type="hidden" value="65"/>
															</p>
														</form>
													</div>
												</div>
											</div>
											<div class="clear">
											</div>
										</div>
									</div>)?
								</div>
								<section class="related products">
									<h2>
										Related products
									</h2>
									<ul class="products">
										<li class="post-(.*)">
											<a class="woocommerce-LoopProduct-link woocommerce-loop-product__link" href="https://themes.woocommerce.com/storefront/product/p(.*)e/">
												<img alt="" class="attachment-shop_catalog size-shop_catalog wp-post-image" height="600" src="//themes.woocommerce.com/storefront/wp-content/uploads/sites/78/2015/(.*)e.jpg?w=450&amp;h=600&amp;crop=1" width="450"/>
												<h2 class="woocommerce-loop-product__title">
													P(.*)e
												</h2>
												<span class="price">
													<span class="woocommerce-Price-amount amount">
														<span class="woocommerce-Price-currencySymbol">
															£
														</span>
														(.*)
													</span>
												</span>
											</a>
											<a class="button product_type_(.*)" rel="nofollow">
												(.*)
											</a>
										</li>
										(<li class="post-7198 product type-product status-publish has-post-thumbnail product_cat-knives instock shipping-taxable purchasable product-type-simple">
											<a class="woocommerce-LoopProduct-link woocommerce-loop-product__link" href="https://themes.woocommerce.com/storefront/product/carbon-coated-kitchen-knife/">
												<img alt="" class="attachment-shop_catalog size-shop_catalog wp-post-image" height="600" src="//themes.woocommerce.com/storefront/wp-content/uploads/sites/78/2015/12/carbon-coated-kitchen-knife.jpg?w=450&amp;h=600&amp;crop=1" width="450"/>
												<h2 class="woocommerce-loop-product__title">
													Carbon Coated Kitchen Knife
												</h2>
												<span class="price">
													<span class="woocommerce-Price-amount amount">
														<span class="woocommerce-Price-currencySymbol">
															£
														</span>
														22.99
													</span>
												</span>
											</a>
											<a class="button product_type_simple add_to_cart_button ajax_add_to_cart" data-product_id="7198" data-product_sku="CARKNF" data-quantity="1" href="/storefront/product/stainless-steel-kitchen-knife-set/?add-to-cart=7198" rel="nofollow">
												Add to cart
											</a>
										</li>)?
										(<li class="post-7202 product type-product status-publish has-post-thumbnail product_cat-knives last instock shipping-taxable purchasable product-type-simple">
											<a class="woocommerce-LoopProduct-link woocommerce-loop-product__link" href="https://themes.woocommerce.com/storefront/product/soft-handled-kitchen-knife/">
												<img alt="" class="attachment-shop_catalog size-shop_catalog wp-post-image" height="600" src="//themes.woocommerce.com/storefront/wp-content/uploads/sites/78/2015/12/soft-handle-kitchen-knife.jpg?w=450&amp;h=600&amp;crop=1" width="450"/>
												<h2 class="woocommerce-loop-product__title">
													Soft Handled Kitchen Knife
												</h2>
												<span class="price">
													<span class="woocommerce-Price-amount amount">
														<span class="woocommerce-Price-currencySymbol">
															£
														</span>
														22.99
													</span>
												</span>
											</a>
											<a class="button product_type_simple add_to_cart_button ajax_add_to_cart" data-product_id="7202" data-product_sku="SFTKNF" data-quantity="1" href="/storefront/product/stainless-steel-kitchen-knife-set/?add-to-cart=7202" rel="nofollow">
												Add to cart
											</a>
										</li>)?
									</ul>
								</section>
								<nav aria-label="More products" class="storefront-product-pagination">
									<a href="https://themes.woocommerce.com/storefront/product/(.*)">
										<img alt="" class="attachment-shop_thumbnail size-shop_thumbnail wp-post-image" height="200" src="//themes.woocommerce.com/storefront/wp-content/uploads/sites/78/2015/(.*)e.jpg?w=200&amp;h=200&amp;crop=1" width="200"/>
										<span class="storefront-product-pagination__title">
											(.*)e
										</span>
									</a>
									(<a href="https://themes.woocommerce.com/storefront/product/red-steel-blender/" rel="next">
										<img alt="" class="attachment-shop_thumbnail size-shop_thumbnail wp-post-image" height="200" src="//themes.woocommerce.com/storefront/wp-content/uploads/sites/78/2015/12/red-steel-blender.jpg?w=200&amp;h=200&amp;crop=1" width="200"/>
										<span class="storefront-product-pagination__title">
											Red Steel Blender
										</span>
									</a>)?
								</nav>
							</div>
						</main>
					</div>
					<div class="widget-area" id="secondary" role="complementary">
						<div class="widget woocommerce widget_shopping_cart" id="woocommerce_widget_cart-2">
							<span class="gamma widget-title">
								Cart
							</span>
							<div class="widget_shopping_cart_content">
							</div>
						</div>
						<div class="widget woocommerce widget_product_categories" id="woocommerce_product_categories-2">
							<span class="gamma widget-title">
								Product Categories
							</span>
							<ul class="product-categories">
								<li class="cat-item cat-item-9 cat-parent(.*)cat-parent">
									<a href="https://themes.woocommerce.com/storefront/product-category/clothing/">
										Clothing
									</a>
									<ul class="children">
										<li class="cat-item cat-item-121">
											<a href="https://themes.woocommerce.com/storefront/product-category/clothing/bags/">
												Bags
											</a>
										</li>
										<li class="cat-item cat-item-44(.*)">
											<a href="https://themes.woocommerce.com/storefront/product-category/clothing/blouses/">
												Blouses
											</a>
										</li>
										<li class="cat-item cat-item-41">
											<a href="https://themes.woocommerce.com/storefront/product-category/clothing/dresses/">
												Dresses
											</a>
										</li>
										<li class="cat-item cat-item-56">
											<a href="https://themes.woocommerce.com/storefront/product-category/clothing/footwear/">
												Footwear
											</a>
										</li>
										<li class="cat-item cat-item-54">
											<a href="https://themes.woocommerce.com/storefront/product-category/clothing/hats/">
												Hats
											</a>
										</li>
										<li class="cat-item cat-item-10">
											<a href="https://themes.woocommerce.com/storefront/product-category/clothing/hoodies/">
												Hoodies
											</a>
										</li>
										<li class="cat-item cat-item-55">
											<a href="https://themes.woocommerce.com/storefront/product-category/clothing/shirts/">
												Shirts
											</a>
										</li>
										<li class="cat-item cat-item-47">
											<a href="https://themes.woocommerce.com/storefront/product-category/clothing/skirts/">
												Skirts
											</a>
										</li>
										<li class="cat-item cat-item-14">
											<a href="https://themes.woocommerce.com/storefront/product-category/clothing/t-shirts/">
												T-shirts
											</a>
										</li>
										<li class="cat-item cat-item-49">
											<a href="https://themes.woocommerce.com/storefront/product-category/clothing/trousers/">
												Trousers
											</a>
										</li>
									</ul>
								</li>
								<li class="cat-item cat-item-69 cat-parent">
									<a href="https://themes.woocommerce.com/storefront/product-category/electronics/">
										Electronics
									</a>
									<ul class="children">
										<li class="cat-item cat-item-71 cat-parent">
											<a href="https://themes.woocommerce.com/storefront/product-category/electronics/cameras/">
												Cameras
											</a>
											<ul class="children">
												<li class="cat-item cat-item-114">
													<a href="https://themes.woocommerce.com/storefront/product-category/electronics/cameras/accessories/">
														Accessories
													</a>
												</li>
												<li class="cat-item cat-item-112">
													<a href="https://themes.woocommerce.com/storefront/product-category/electronics/cameras/lenses/">
														Lenses
													</a>
												</li>
											</ul>
										</li>
										<li class="cat-item cat-item-99">
											<a href="https://themes.woocommerce.com/storefront/product-category/electronics/dvd-players/">
												DVD Players
											</a>
										</li>
										<li class="cat-item cat-item-72">
											<a href="https://themes.woocommerce.com/storefront/product-category/electronics/headphones/">
												Headphones
											</a>
										</li>
										<li class="cat-item cat-item-91">
											<a href="https://themes.woocommerce.com/storefront/product-category/electronics/mp3-players/">
												MP3 Players
											</a>
										</li>
										<li class="cat-item cat-item-90">
											<a href="https://themes.woocommerce.com/storefront/product-category/electronics/radios/">
												Radios
											</a>
										</li>
										<li class="cat-item cat-item-70">
											<a href="https://themes.woocommerce.com/storefront/product-category/electronics/televisions/">
												Televisions
											</a>
										</li>
									</ul>
								</li>
								<li class="cat-item cat-item-65 cat-parent(.*)cat-parent">
									<a href="https://themes.woocommerce.com/storefront/product-category/kitchen/">
										Kitchen
									</a>
									<ul class="children">
										<li class="cat-item cat-item-102">
											<a href="https://themes.woocommerce.com/storefront/product-category/kitchen/blenders/">
												Blenders
											</a>
										</li>
										<li class="cat-item cat-item-103">
											<a href="https://themes.woocommerce.com/storefront/product-category/kitchen/colanders/">
												Colanders
											</a>
										</li>
										<li class="cat-item cat-item-68">
											<a href="https://themes.woocommerce.com/storefront/product-category/kitchen/kettles/">
												Kettles
											</a>
										</li>
										<li class="cat-item cat-item-101(.*)">
											<a href="https://themes.woocommerce.com/storefront/product-category/kitchen/knives/">
												Knives
											</a>
										</li>
										<li class="cat-item cat-item-66">
											<a href="https://themes.woocommerce.com/storefront/product-category/kitchen/pots-pans/">
												Pots &amp; Pans
											</a>
										</li>
										<li class="cat-item cat-item-67">
											<a href="https://themes.woocommerce.com/storefront/product-category/kitchen/toasters/">
												Toasters
											</a>
										</li>
									</ul>
								</li>
								<li class="cat-item cat-item-11 cat-parent">
									<a href="https://themes.woocommerce.com/storefront/product-category/music/">
										Music
									</a>
									<ul class="children">
										<li class="cat-item cat-item-15">
											<a href="https://themes.woocommerce.com/storefront/product-category/music/albums/">
												Albums
											</a>
										</li>
										<li class="cat-item cat-item-100">
											<a href="https://themes.woocommerce.com/storefront/product-category/music/mp3/">
												MP3
											</a>
										</li>
										<li class="cat-item cat-item-13">
											<a href="https://themes.woocommerce.com/storefront/product-category/music/singles/">
												Singles
											</a>
										</li>
									</ul>
								</li>
								<li class="cat-item cat-item-12">
									<a href="https://themes.woocommerce.com/storefront/product-category/posters/">
										Posters
									</a>
								</li>
								<li class="cat-item cat-item-31">
									<a href="https://themes.woocommerce.com/storefront/product-category/scuba-gear/">
										Scuba gear
									</a>
								</li>
								<li class="cat-item cat-item-45">
									<a href="https://themes.woocommerce.com/storefront/product-category/sweatshirts/">
										Sweatshirts
									</a>
								</li>
							</ul>
						</div>
						<div class="widget widget_search" id="search-2">
							<form action="https://themes.woocommerce.com/storefront/" class="search-form" method="get" role="search">
								<label>
									<span class="screen-reader-text">
										Search for:
									</span>
									<input class="search-field" name="s" placeholder="Search …" type="search" value=""/>
								</label>
								<input class="search-submit" type="submit" value="Search"/>
							</form>
						</div>
						<div class="widget widget_recent_entries" id="recent-posts-2">
							<span class="gamma widget-title">
								Recent Posts
							</span>
							<ul>
								<li>
									<a href="https://themes.woocommerce.com/storefront/2014/09/01/birds-in-flight-and-the-power-of-a-remote-working-team/">
										Birds In Flight And The Power Of A Remote Working Team
									</a>
								</li>
								<li>
									<a href="https://themes.woocommerce.com/storefront/2014/09/01/make-more-money-through-ecommerce-analytics-with-segment/">
										Make More Money through Ecommerce Analytics with Segment
									</a>
								</li>
								<li>
									<a href="https://themes.woocommerce.com/storefront/2014/09/01/lessons-learnt-planning-a-big-product-release/">
										Lessons learnt planning a big product release
									</a>
								</li>
								<li>
									<a href="https://themes.woocommerce.com/storefront/2014/09/01/so-you-want-to-be-a-dropshipper-picking-the-perfect-product/">
										So You Want to Be a Dropshipper: Picking the Perfect Product
									</a>
								</li>
								<li>
									<a href="https://themes.woocommerce.com/storefront/2014/09/01/create-a-custom-canvas-homepage-using-siteorigin-page-builder/">
										Create a custom Canvas homepage using SiteOrigin Page Builder
									</a>
								</li>
							</ul>
						</div>
					</div>
				</div>
			</div>
			<footer class="site-footer" id="colophon" role="contentinfo">
				<div class="col-full">
					<div class="footer-widgets row-1 col-2 fix">
						<div class="block footer-widget-1">
							<div class="widget widget_recent_entries" id="recent-posts-3">
								<span class="gamma widget-title">
									Recent Posts
								</span>
								<ul>
									<li>
										<a href="https://themes.woocommerce.com/storefront/2014/09/01/birds-in-flight-and-the-power-of-a-remote-working-team/">
											Birds In Flight And The Power Of A Remote Working Team
										</a>
									</li>
									<li>
										<a href="https://themes.woocommerce.com/storefront/2014/09/01/make-more-money-through-ecommerce-analytics-with-segment/">
											Make More Money through Ecommerce Analytics with Segment
										</a>
									</li>
									<li>
										<a href="https://themes.woocommerce.com/storefront/2014/09/01/lessons-learnt-planning-a-big-product-release/">
											Lessons learnt planning a big product release
										</a>
									</li>
									<li>
										<a href="https://themes.woocommerce.com/storefront/2014/09/01/so-you-want-to-be-a-dropshipper-picking-the-perfect-product/">
											So You Want to Be a Dropshipper: Picking the Perfect Product
										</a>
									</li>
									<li>
										<a href="https://themes.woocommerce.com/storefront/2014/09/01/create-a-custom-canvas-homepage-using-siteorigin-page-builder/">
											Create a custom Canvas homepage using SiteOrigin Page Builder
										</a>
									</li>
								</ul>
							</div>
						</div>
						<div class="block footer-widget-2">
							<div class="widget woocommerce widget_top_rated_products" id="woocommerce_top_rated_products-2">
								<span class="gamma widget-title">
									Top Rated Products
								</span>
								<ul class="product_list_widget">
									<li>
										<a href="https://themes.woocommerce.com/storefront/product/woo-album-4/">
											<img alt="" class="attachment-shop_thumbnail size-shop_thumbnail wp-post-image" height="200" sizes="(max-width: 200px) 100vw, 200px" src="//themes.woocommerce.com/storefront/wp-content/uploads/sites/78/2013/06/cd_5_angle.jpg?w=200&amp;h=200&amp;crop=1" srcset="//themes.woocommerce.com/storefront/wp-content/uploads/sites/78/2013/06/cd_5_angle.jpg 1000w, //themes.woocommerce.com/storefront/wp-content/uploads/sites/78/2013/06/cd_5_angle.jpg?resize=150,150 150w, //themes.woocommerce.com/storefront/wp-content/uploads/sites/78/2013/06/cd_5_angle.jpg?resize=300,300 300w, //themes.woocommerce.com/storefront/wp-content/uploads/sites/78/2013/06/cd_5_angle.jpg?resize=768,768 768w, //themes.woocommerce.com/storefront/wp-content/uploads/sites/78/2013/06/cd_5_angle.jpg?resize=200,200 200w, //themes.woocommerce.com/storefront/wp-content/uploads/sites/78/2013/06/cd_5_angle.jpg?resize=32,32 32w" width="200"/>
											<span class="product-title">
												Woo Album #4
											</span>
										</a>
										<div class="star-rating">
											<span style="width:100%">
												Rated
												<strong class="rating">
													5.00
												</strong>
												out of 5
											</span>
										</div>
										<span class="woocommerce-Price-amount amount">
											<span class="woocommerce-Price-currencySymbol">
												£
											</span>
											9.00
										</span>
									</li>
									<li>
										<a href="https://themes.woocommerce.com/storefront/product/ninja-silhouette/">
											<img alt="" class="attachment-shop_thumbnail size-shop_thumbnail wp-post-image" height="200" sizes="(max-width: 200px) 100vw, 200px" src="//themes.woocommerce.com/storefront/wp-content/uploads/sites/78/2013/06/T_5_front.jpg?w=200&amp;h=200&amp;crop=1" srcset="//themes.woocommerce.com/storefront/wp-content/uploads/sites/78/2013/06/T_5_front.jpg 1000w, //themes.woocommerce.com/storefront/wp-content/uploads/sites/78/2013/06/T_5_front.jpg?resize=150,150 150w, //themes.woocommerce.com/storefront/wp-content/uploads/sites/78/2013/06/T_5_front.jpg?resize=300,300 300w, //themes.woocommerce.com/storefront/wp-content/uploads/sites/78/2013/06/T_5_front.jpg?resize=768,768 768w, //themes.woocommerce.com/storefront/wp-content/uploads/sites/78/2013/06/T_5_front.jpg?resize=200,200 200w, //themes.woocommerce.com/storefront/wp-content/uploads/sites/78/2013/06/T_5_front.jpg?resize=32,32 32w" width="200"/>
											<span class="product-title">
												Ninja Silhouette
											</span>
										</a>
										<div class="star-rating">
											<span style="width:100%">
												Rated
												<strong class="rating">
													5.00
												</strong>
												out of 5
											</span>
										</div>
										<span class="woocommerce-Price-amount amount">
											<span class="woocommerce-Price-currencySymbol">
												£
											</span>
											20.00
										</span>
									</li>
									<li>
										<a href="https://themes.woocommerce.com/storefront/product/happy-ninja/">
											<img alt="" class="attachment-shop_thumbnail size-shop_thumbnail wp-post-image" height="200" sizes="(max-width: 200px) 100vw, 200px" src="//themes.woocommerce.com/storefront/wp-content/uploads/sites/78/2013/06/T_7_front.jpg?w=200&amp;h=200&amp;crop=1" srcset="//themes.woocommerce.com/storefront/wp-content/uploads/sites/78/2013/06/T_7_front.jpg 1000w, //themes.woocommerce.com/storefront/wp-content/uploads/sites/78/2013/06/T_7_front.jpg?resize=150,150 150w, //themes.woocommerce.com/storefront/wp-content/uploads/sites/78/2013/06/T_7_front.jpg?resize=300,300 300w, //themes.woocommerce.com/storefront/wp-content/uploads/sites/78/2013/06/T_7_front.jpg?resize=768,768 768w, //themes.woocommerce.com/storefront/wp-content/uploads/sites/78/2013/06/T_7_front.jpg?resize=200,200 200w, //themes.woocommerce.com/storefront/wp-content/uploads/sites/78/2013/06/T_7_front.jpg?resize=32,32 32w" width="200"/>
											<span class="product-title">
												Happy Ninja
											</span>
										</a>
										<div class="star-rating">
											<span style="width:100%">
												Rated
												<strong class="rating">
													5.00
												</strong>
												out of 5
											</span>
										</div>
										<span class="woocommerce-Price-amount amount">
											<span class="woocommerce-Price-currencySymbol">
												£
											</span>
											18.00
										</span>
									</li>
								</ul>
							</div>
						</div>
					</div>
					<div class="site-info">
						Â© Storefront
						<br/>
						<a href="https://woocommerce.com" rel="author" target="_blank" title="WooCommerce - The Best eCommerce Platform for WordPress">
							Built with Storefront &amp; WooCommerce
						</a>
						.
					</div>
					<div class="storefront-handheld-footer-bar">
						<ul class="columns-3">
							<li class="my-account">
								<a href="https://themes.woocommerce.com/storefront/my-account/">
									My Account
								</a>
							</li>
							<li class="search">
								<a href="">
									Search
								</a>
								<div class="site-search">
									<div class="widget woocommerce widget_product_search">
										<form action="https://themes.woocommerce.com/storefront/" class="woocommerce-product-search" method="get" role="search">
											<label class="screen-reader-text" for="woocommerce-product-search-field-1">
												Search for:
											</label>
											<input class="search-field" id="woocommerce-product-search-field-1" name="s" placeholder="Search products…" type="search" value=""/>
											<input type="submit" value="Search"/>
											<input name="post_type" type="hidden" value="product"/>
										</form>
									</div>
								</div>
							</li>
							<li class="cart">
								<a class="footer-cart-contents" href="https://themes.woocommerce.com/storefront/cart/" title="View your shopping cart">
									<span class="count">
										0
									</span>
								</a>
							</li>
						</ul>
					</div>
				</div>
			</footer>
			<section class="storefront-sticky-add-to-cart">
				<div class="col-full">
					<div class="storefront-sticky-add-to-cart__content">
						<img alt="" class="attachment-shop_catalog size-shop_catalog wp-post-image" height="600" src="//themes.woocommerce.com/storefront/wp-content/uploads/sites/78/2015/(.*).jpg?w=450&amp;h=600&amp;crop=1" width="450"/>
						<div class="storefront-sticky-add-to-cart__content-product-info">
							<span class="storefront-sticky-add-to-cart__content-title">
								You're viewing:
								<strong>
									(.*)
								</strong>
							</span>
							<span class="storefront-sticky-add-to-cart__content-price">
								<span class="woocommerce-Price-amount amount">
									<span class="woocommerce-Price-currencySymbol">
										£
									</span>
									3(.*)
								</span>
							</span>
						</div>
						<a class="storefront-sticky-add-to-cart__content-button button alt" href="(.*)">
							(.*)
						</a>
					</div>
				</div>
			</section>
		</div>
		<p class="woocommerce-store-notice demo_store">
			This is a demo store for testing purposes — no orders shall be fulfilled.
			<a class="woocommerce-store-notice__dismiss-link" href="#">
				Dismiss
			</a>
		</p>
		<div style="display:none">
		</div>
		<div aria-hidden="true" class="pswp" role="dialog" tabindex="-1">
			<div class="pswp__bg">
			</div>
			<div class="pswp__scroll-wrap">
				<div class="pswp__container">
					<div class="pswp__item">
					</div>
					<div class="pswp__item">
					</div>
					<div class="pswp__item">
					</div>
				</div>
				<div class="pswp__ui pswp__ui--hidden">
					<div class="pswp__top-bar">
						<div class="pswp__counter">
						</div>
						<button aria-label="Close (Esc)" class="pswp__button pswp__button--close">
						</button>
						<button aria-label="Share" class="pswp__button pswp__button--share">
						</button>
						<button aria-label="Toggle fullscreen" class="pswp__button pswp__button--fs">
						</button>
						<button aria-label="Zoom in/out" class="pswp__button pswp__button--zoom">
						</button>
						<div class="pswp__preloader">
							<div class="pswp__preloader__icn">
								<div class="pswp__preloader__cut">
									<div class="pswp__preloader__donut">
									</div>
								</div>
							</div>
						</div>
					</div>
					<div class="pswp__share-modal pswp__share-modal--hidden pswp__single-tap">
						<div class="pswp__share-tooltip">
						</div>
					</div>
					<button aria-label="Previous (arrow left)" class="pswp__button pswp__button--arrow--left">
					</button>
					<button aria-label="Next (arrow right)" class="pswp__button pswp__button--arrow--right">
					</button>
					<div class="pswp__caption">
						<div class="pswp__caption__center">
						</div>
					</div>
				</div>
			</div>
		</div>
	</body>
</html>